assets/map1514661237.png
3 black 2 red 1 blue 1
12
425 750 425750
475 750 475750
550 750 550750
625 750 625750
675 750 675750
700 750 700750
750 750 750750
800 750 800750
875 750 875750
900 750 900750
925 750 925750
975 750 975750
22
675 175 675175
675 225 675225
675 300 675300
675 350 675350
675 400 675400
675 475 675475
675 525 675525
675 600 675600
675 650 675650
675 700 675700
675 750 675750
675 775 675775
675 850 675850
675 925 675925
775 850 775850
825 850 825850
875 850 875850
950 850 950850
900 775 900775
900 750 900750
900 700 900700
900 625 900625
10
75 325 75325
150 375 150375
200 450 200450
300 500 300500
350 550 350550
425 625 425625
475 700 475700
550 750 550750
600 825 600825
650 875 650875
