maps\map1523775132.png
3 black 5 red 1 blue 1
12
50 675 "50675"
125 675 "125675"
175 675 "175675"
250 675 "250675"
300 675 "300675"
300 675 "300675"
300 675 "300675"
350 675 "350675"
400 675 "400675"
475 675 "475675"
550 675 "550675"
625 675 "625675"
22
300 50 "30050"
300 125 "300125"
300 175 "300175"
300 250 "300250"
300 300 "300300"
300 375 "300375"
300 425 "300425"
300 500 "300500"
300 575 "300575"
300 650 "300650"
300 675 "300675"
300 675 "300675"
300 700 "300700"
300 775 "300775"
300 850 "300850"
300 925 "300925"
350 850 "350850"
425 850 "425850"
475 850 "475850"
525 850 "525850"
575 850 "575850"
650 850 "650850"
10
25 150 "25150"
125 250 "125250"
200 300 "200300"
275 350 "275350"
325 425 "325425"
400 500 "400500"
475 550 "475550"
550 600 "550600"
600 675 "600675"
675 750 "675750"
